<svg xmlns="http://www.w3.org/2000/svg" width="17.5" height="20" viewBox="0 0 17.5 20">
    <defs>
        <style>
            .cls-1{fill:#084f7f}
        </style>
    </defs>
    <path id="Pfad_931" d="M15.625-10.5a1.808 1.808 0 0 1 1.328.547 1.808 1.808 0 0 1 .547 1.328v7.5A1.808 1.808 0 0 1 16.953.2a1.808 1.808 0 0 1-1.328.55H1.875A1.808 1.808 0 0 1 .547.2 1.808 1.808 0 0 1 0-1.125v-7.5a1.808 1.808 0 0 1 .547-1.328 1.808 1.808 0 0 1 1.328-.547H2.5V-13a6.114 6.114 0 0 1 .84-3.125 6.206 6.206 0 0 1 2.285-2.285 6.15 6.15 0 0 1 3.145-.84 5.941 5.941 0 0 1 3.125.859 6.406 6.406 0 0 1 2.266 2.3 6.114 6.114 0 0 1 .839 3.13v2.461zM3.75-13v2.5h10V-13a4.958 4.958 0 0 0-.664-2.52 4.864 4.864 0 0 0-1.816-1.816A4.958 4.958 0 0 0 8.75-18a4.958 4.958 0 0 0-2.52.664 4.864 4.864 0 0 0-1.816 1.816A4.958 4.958 0 0 0 3.75-13zM15.625-.5a.608.608 0 0 0 .449-.176.608.608 0 0 0 .176-.449v-7.5a.608.608 0 0 0-.176-.449.608.608 0 0 0-.449-.176H1.875a.608.608 0 0 0-.449.176.608.608 0 0 0-.176.449v7.5a.608.608 0 0 0 .176.449.608.608 0 0 0 .449.176z" class="cls-1" data-name="Pfad 931" transform="translate(0 19.25)"/>
</svg>
