<svg xmlns="http://www.w3.org/2000/svg" id="Slected_Logo_Icon" width="45" height="45.202" data-name="Slected Logo Icon" viewBox="0 0 45 45.202">
    <defs>
        <style>
            .cls-1{fill:url(#linear-gradient)}
        </style>
        <linearGradient id="linear-gradient" x1="-.155" x2="1.086" y1=".528" y2=".537" gradientUnits="objectBoundingBox">
            <stop offset="0" stop-color="#084f7f"/>
            <stop offset="1" stop-color="#3aaadc"/>
        </linearGradient>
    </defs>
    <path id="Differenzmenge_1" d="M17.586 45.2a13.647 13.647 0 0 1-7.535-2.5c1.756-1.612 4.182-4.833 5.771-11.031l.946-4.141c1.058-4.161 2.347-7.209 3.832-9.059a5.719 5.719 0 0 1 3.59-2.3 17.229 17.229 0 0 1 3.075-.3 7.039 7.039 0 0 1 5.494 2.015 5.928 5.928 0 0 1 1.414 3.936 5.78 5.78 0 0 1-1.611 4.036 5.4 5.4 0 0 1-3.918 1.678h-8.8l-.366 1.439H31.74a7.834 7.834 0 0 0 7.4-6.416A8.937 8.937 0 0 0 34 12.428a12 12 0 0 0-5.158-1.109 13.456 13.456 0 0 0-4.113.622 7.952 7.952 0 0 0-3.3 2.112c-1.673 1.624-3.99 4.815-5.523 10.8l-.947 4.141c-1.059 4.158-2.346 7.206-3.83 9.056a5.721 5.721 0 0 1-3.59 2.3l-.3.052a24.909 24.909 0 0 1-6.384-10.93 5.354 5.354 0 0 1 2.231-.481h8.8l.366-1.439H.4a22.516 22.516 0 0 1-.4-3.454A29.976 29.976 0 0 1 3.839 9.255C6.54 4.442 10.171 1.242 14.062.244A8.907 8.907 0 0 1 16.254 0c3.239 0 7.678 1.254 12.18 3.44a39.83 39.83 0 0 1 12.017 8.7 19.688 19.688 0 0 1 3.542 5.36 11.465 11.465 0 0 1 .95 5.745c-.607 5.7-3.818 10.646-9.543 14.709a51.309 51.309 0 0 1-14.735 6.8 10.82 10.82 0 0 1-3.079.446zm2.724-14a3.081 3.081 0 0 0-2.885 2.266l-.955 3.409v.025h4.252a3.212 3.212 0 0 0 3.072-2.135l1.03-3.559z" class="cls-1" data-name="Differenzmenge 1"/>
</svg>
