<svg xmlns="http://www.w3.org/2000/svg" width="19.5" height="19.5" viewBox="0 0 19.5 19.5">
    <defs>
        <style>
            .cls-1{fill:#1a0}
        </style>
    </defs>
    <path id="Pfad_1009" d="M10.219 1.219a9.451 9.451 0 0 1 4.875 1.317 9.852 9.852 0 0 1 3.558 3.558 9.451 9.451 0 0 1 1.317 4.875 9.451 9.451 0 0 1-1.317 4.875 9.852 9.852 0 0 1-3.558 3.556 9.451 9.451 0 0 1-4.875 1.317A9.451 9.451 0 0 1 5.344 19.4a9.852 9.852 0 0 1-3.558-3.558 9.451 9.451 0 0 1-1.317-4.873 9.451 9.451 0 0 1 1.317-4.875 9.852 9.852 0 0 1 3.558-3.558 9.451 9.451 0 0 1 4.875-1.317zm0 18.242a8.287 8.287 0 0 0 4.266-1.14 8.453 8.453 0 0 0 3.086-3.106 8.355 8.355 0 0 0 1.14-4.266 8.25 8.25 0 0 0-1.14-4.249 8.453 8.453 0 0 0-3.106-3.086A8.355 8.355 0 0 0 10.2 2.477a8.25 8.25 0 0 0-4.246 1.14 8.453 8.453 0 0 0-3.087 3.106 8.355 8.355 0 0 0-1.14 4.266 8.25 8.25 0 0 0 1.14 4.246 8.453 8.453 0 0 0 3.106 3.086 8.319 8.319 0 0 0 4.246 1.14zM15.8 8.649a.425.425 0 0 0 .118-.315.575.575 0 0 0-.118-.354l-.354-.315a.374.374 0 0 0-.315-.157.575.575 0 0 0-.354.118l-6.406 6.409-2.713-2.752a.575.575 0 0 0-.354-.118.425.425 0 0 0-.315.118l-.354.315a.575.575 0 0 0-.118.354.425.425 0 0 0 .118.315l3.381 3.42a.489.489 0 0 0 .354.157.374.374 0 0 0 .315-.157z" class="cls-1" data-name="Pfad 1009" transform="translate(-.469 -1.219)"/>
</svg>
